{
  "security": {
    "kerberos_descriptor": {
      "services": [
        {
          "components": [],
          "name": "SPARK",
          "identities": [
            {
              "name": "sparkuser",
              "principal": {
                "value": "${spark-env/spark_user}@${realm}",
                "type": "user"
              }
            }
          ]
        }
      ]
    }
  }
}