{
  "components": {
    "NAMENODE": {
      "is_ha_only": "both",
      "kerberos": "both",
      "type": "master",
      "ha_master": "yes"
    },
    "SECONDARY_NAMENODE": {
      "is_ha_only": "no",
      "kerberos": "both",
      "type": "slave"
    },
    "JOURNALNODE": {
      "is_ha_only": "yes",
      "kerberos": "both",
      "type": "gateway,master",
      "ha_master": "yes"
    },
    "DATANODE": {
      "is_ha_only": "both",
      "kerberos": "both",
      "type": "slave"
    },
    "NFS_GATEWAY": {
      "is_ha_only": "both",
      "kerberos": "both",
      "type": "gateway"
    },
    "HDFS_CLIENT": {
      "is_ha_only": "both",
      "kerberos": "both",
      "type": "client"
    }
  }
}