{
  "configurations": [
    {
      "ranger-admin-site": {
        "properties": {
          "ranger.jpa.jdbc.driver": "org.postgresql.Driver",
          "ranger.jpa.jdbc.url": "jdbc:postgresql://DB_HOST_PLACEHOLDER/ranger"
        }
      }
    }
  ]
}