{
  "configurations": [
    {
      "yarn-site": {
        "properties": {
          "yarn.resourcemanager.webapp.https.address.rm1": "%HOSTGROUP::host_group_master%:8088",
          "yarn.resourcemanager.webapp.https.address.rm2": "%HOSTGROUP::host_group_ha_master%:8088"
        }
      }
    }
  ]
}