{
  "configurations": [
    {
      "falcon-runtime.properties": {
        "properties": {
          "*.feed.late.frequency": "minutes(3)",
          "*.workflow.status.retry.count": "150"
        }
      }
    }
  ]
}