{
  "components": {
    "HIVE_METASTORE": {
      "is_ha_only": "both",
      "kerberos": "both",
      "type": "master",
      "ha_master": "yes"
    },
    "HIVE_SERVER": {
      "is_ha_only": "both",
      "kerberos": "both",
      "type": "master",
      "ha_master": "yes"
    },
    "WEBHCAT_SERVER": {
      "is_ha_only": "both",
      "kerberos": "both",
      "type": "master",
      "ha_master": "yes"
    },
    "HIVE_SERVER_INTERACTIVE": {
      "is_ha_only": "both",
      "kerberos": "both",
      "type": "master"
    },
    "HIVE_CLIENT": {
      "is_ha_only": "both",
      "kerberos": "both",
      "type": "required"
    },
    "HCAT": {
      "is_ha_only": "both",
      "kerberos": "both",
      "type": "client"
    }
  }
}