{
  "deployonly_auto": {
    "install_dependencies": ["hdfs", "yarn", "mapreduce2", "tez", "hive", "hbase", "pig", "sqoop", "oozie", "zookeeper", "falcon", "storm", "flume", "accumulo", "ams", "atlas", "kafka", "knox", "log_search", "smartsense", "spark", "spark2", "zeppelin", "druid", "mahout", "slider", "ambari_infra"]
  },
  "SmartSense": {
    "install_dependencies": ["hdfs", "yarn", "zookeeper", "mapreduce2", "hdfs", "mapreduce2", "yarn", "tez", "hive", "hbase", "pig", "sqoop", "ams", "smartsense", "atlas", "kafka", "ambari_infra"]
  },
  "Falcon": {
    "install_dependencies": ["hdfs", "yarn", "zookeeper", "mapreduce2", "falcon", "pig","tez", "oozie", "hive", "spark", "slider", "atlas", "kafka", "hbase", "ambari_infra"]
  },
  "Falcon-Multi": {
    "install_dependencies": ["hdfs", "yarn", "zookeeper", "mapreduce2", "falcon", "pig","tez", "oozie", "hive", "slider", "atlas", "kafka", "hbase", "ambari_infra"]
  },
  "Falcon-HA": {
    "install_dependencies": ["hdfs", "yarn", "zookeeper", "mapreduce2", "falcon", "pig","tez", "hive", "oozie", "slider", "atlas", "kafka", "hbase", "ambari_infra"]
  },
  "Falcon-Multi-HA": {
    "install_dependencies": ["hdfs", "yarn", "zookeeper", "mapreduce2", "falcon", "pig","tez", "hive", "oozie", "slider", "atlas", "kafka", "hbase", "ambari_infra"]
  },
  "Storm": {
    "install_dependencies": ["hdfs", "yarn", "zookeeper", "mapreduce2", "storm", "pig","tez", "hive", "hbase", "kafka", "slider", "atlas", "ambari_infra"]
  },
  "Hdfs": {
    "install_dependencies": ["hdfs", "yarn", "zookeeper", "mapreduce2"]
  },
  "Mapreduce": {
    "install_dependencies": ["hdfs", "yarn", "zookeeper", "mapreduce2"]
  },
  "Yarn": {
    "install_dependencies": ["hdfs", "yarn", "zookeeper", "mapreduce2"]
  },
  "HBase": {
    "install_dependencies": ["hdfs", "yarn", "mapreduce2", "zookeeper", "hbase"]
  },
  "Accumulo": {
    "install_dependencies": ["hdfs", "yarn", "mapreduce2", "zookeeper", "accumulo"]
  },
  "Phoenix-QueryServer": {
    "install_dependencies": ["hdfs", "yarn", "mapreduce2", "zookeeper", "hbase", "spark", "pig","tez", "hive", "slider", "atlas", "kafka", "ambari_infra"]
  },
  "Phoenix-qs-Concurr": {
    "install_dependencies": ["hdfs", "yarn", "mapreduce2", "zookeeper", "hbase"]
  },
  "Phoenix-qs-ha": {
    "install_dependencies": ["hdfs", "yarn", "mapreduce2", "zookeeper", "hbase"]
  },
  "Pig": {
    "install_dependencies": ["hdfs", "yarn", "mapreduce2", "zookeeper", "pig","tez", "hive", "hbase", "slider", "atlas", "kafka", "ambari_infra"]
  },
  "Oozie": {
    "install_dependencies": ["hdfs", "yarn", "mapreduce2", "zookeeper", "pig","tez", "hive", "hbase", "oozie", "sqoop", "spark", "slider", "atlas", "kafka", "ambari_infra"]
  },
  "Phoenix": {
    "install_dependencies": ["hdfs", "yarn", "mapreduce2", "zookeeper", "hbase", "spark", "pig","tez", "hive", "slider", "atlas", "kafka", "ambari_infra"]
  },
  "Zookeeper": {
    "install_dependencies": ["hdfs", "yarn", "mapreduce2", "zookeeper", "hbase"]
  },
  "Mahout": {
    "install_dependencies": ["hdfs", "yarn", "mapreduce2", "zookeeper", "mahout"]
  },
  "Hive": {
    "install_dependencies": ["hdfs", "yarn", "mapreduce2", "zookeeper", "hive", "pig","tez", "hbase", "accumulo", "slider", "atlas", "kafka", "hbase", "ambari_infra"]
  },
  "HiveServer2": {
    "install_dependencies": ["hdfs", "yarn", "mapreduce2", "zookeeper", "hive", "pig","tez", "hbase", "slider", "atlas", "kafka", "ambari_infra"]
  },
  "HSIHiveServer2": {
    "install_dependencies": ["hdfs", "yarn", "mapreduce2", "zookeeper", "hive", "pig","tez", "hbase", "slider", "atlas", "kafka", "ambari_infra"]
  },
  "Kafka": {
    "install_dependencies": ["hdfs", "yarn", "mapreduce2", "zookeeper", "pig","tez", "hive", "kafka", "slider", "atlas", "hbase", "ambari_infra"]
  },
  "HS2": {
    "install_dependencies": ["hdfs", "yarn", "mapreduce2", "zookeeper", "hive", "pig","tez", "slider", "atlas", "kafka", "hbase", "ambari_infra"]
  },
  "HS2HTTP": {
    "install_dependencies": ["hdfs", "yarn", "mapreduce2", "zookeeper", "hive", "pig","tez", "slider", "atlas", "kafka", "hbase", "ambari_infra"]
  },
  "HSIHS2": {
    "install_dependencies": ["hdfs", "yarn", "mapreduce2", "zookeeper", "hive", "pig","tez", "slider", "atlas", "kafka", "hbase", "ambari_infra"]
  },
  "Hcatalog": {
    "install_dependencies": ["hdfs", "yarn", "mapreduce2", "zookeeper", "hive", "pig","tez", "hbase", "slider", "atlas", "kafka", "ambari_infra"]
  },
  "WebHcat": {
    "install_dependencies": ["hdfs", "yarn", "mapreduce2", "zookeeper", "hive", "pig","tez", "hbase", "sqoop", "slider", "atlas", "kafka", "ambari_infra"]
  },
  "Sqoop": {
    "install_dependencies": ["hdfs", "yarn", "mapreduce2", "zookeeper", "hive", "pig", "tez","hbase", "sqoop", "slider", "atlas", "kafka", "ambari_infra"]
  },
  "FlumeNG": {
    "install_dependencies": ["hdfs", "yarn", "mapreduce2", "zookeeper", "hive", "pig","tez", "hbase", "flume", "kafka", "slider", "atlas", "ambari_infra"]
  },
  "Knox": {
    "install_dependencies": ["hdfs", "yarn", "mapreduce2", "zookeeper", "hive", "pig", "tez","hbase", "oozie", "knox", "slider", "atlas", "kafka", "ambari_infra"]
  },
  "Slider": {
    "install_dependencies": ["hdfs", "yarn", "mapreduce2", "zookeeper", "slider", "hbase"]
  },
  "XaAgents": {
    "install_dependencies": ["hdfs", "yarn", "mapreduce2", "zookeeper", "hbase", "storm", "pig","tez", "hive", "knox", "slider", "atlas", "kafka", "ambari_infra"]
  },
  "Admin": {
    "install_dependencies": ["hdfs", "yarn", "mapreduce2", "zookeeper", "hbase", "storm", "pig","tez", "hive", "knox", "slider", "atlas", "kafka", "ambari_infra"]
  },
  "Tez": {
    "install_dependencies": ["hdfs", "yarn", "mapreduce2", "zookeeper", "pig","tez", "hive", "atlas", "kafka", "hbase", "ambari_infra"]
  },
   "Tez_v2": {
    "install_dependencies": ["hdfs", "yarn", "mapreduce2", "zookeeper", "pig", "tez","hive", "slider", "atlas", "kafka", "hbase", "ambari_infra"]
  },
  "Spark": {
    "install_dependencies": ["hdfs", "yarn", "mapreduce2", "zookeeper", "spark", "hbase","tez", "kafka", "flume", "hive", "oozie", "pig", "slider", "ambari_infra"]
  },
  "Spark2": {
    "install_dependencies": ["hdfs", "yarn", "mapreduce2", "zookeeper", "spark", "spark2", "hbase", "kafka", "flume", "hive", "oozie", "slider", "pig","tez", "ambari_infra"]
  },
  "Zeppelin": {
    "install_dependencies": ["hdfs", "yarn", "mapreduce2", "zookeeper", "spark", "hbase", "kafka", "flume", "pig","tez", "hive", "oozie", "slider", "zeppelin", "atlas", "ambari_infra"]
  },
  "SparkHive": {
    "install_dependencies": ["hdfs", "yarn", "mapreduce2", "zookeeper", "spark", "pig","tez", "hive", "slider", "atlas", "kafka", "hbase", "ambari_infra"]
  },
  "Spark2Hive": {
    "install_dependencies": ["hdfs", "yarn", "mapreduce2", "zookeeper", "spark", "spark2", "pig","tez", "hive", "slider", "atlas", "kafka", "hbase", "ambari_infra"]
  },
  "Hdfs-HA": {
    "install_dependencies": ["hdfs", "yarn", "zookeeper", "mapreduce2"]
  },
  "Yarn-HA": {
    "install_dependencies": ["hdfs", "yarn", "zookeeper", "mapreduce2"]
  },
  "Pig-HA": {
    "install_dependencies": ["hdfs", "yarn", "mapreduce2", "zookeeper", "pig","tez", "hive", "slider", "atlas", "kafka", "hbase", "ambari_infra"]
  },
  "Hive-HA": {
    "install_dependencies": ["hdfs", "yarn", "mapreduce2", "zookeeper", "pig","tez", "hive", "slider", "atlas", "kafka", "hbase", "ambari_infra"]
  },
  "Oozie-HA": {
    "install_dependencies": ["hdfs", "yarn", "mapreduce2", "zookeeper", "pig","tez", "hive", "oozie", "slider", "atlas", "kafka", "hbase", "ambari_infra"]
  },
  "HBase-HA": {
    "install_dependencies": ["hdfs", "yarn", "mapreduce2", "zookeeper", "hbase"]
  },
  "Storm-HA": {
    "install_dependencies": ["hdfs", "yarn", "mapreduce2", "zookeeper", "storm", "atlas", "kafka", "hbase", "ambari_infra"]
  },
  "Knox-HA": {
    "install_dependencies": ["hdfs", "yarn", "mapreduce2", "zookeeper", "hive", "pig","tez", "hbase", "oozie", "knox", "slider", "atlas", "kafka", "ambari_infra"]
  },
  "atlas": {
    "install_dependencies": ["hdfs", "yarn", "mapreduce2", "zookeeper", "atlas", "hbase", "kafka", "pig", "tez","hive", "sqoop", "slider", "falcon", "oozie", "storm", "ambari_infra"]
  },
  "atlas_hs_interactive": {
    "install_dependencies": ["hdfs", "yarn", "mapreduce2", "zookeeper", "atlas", "hbase", "kafka", "pig","tez", "hive", "sqoop", "slider", "falcon", "oozie", "storm", "ambari_infra"]
  },
  "atlas_ui": {
    "install_dependencies": ["hdfs", "yarn", "mapreduce2", "zookeeper", "atlas", "hbase", "kafka", "pig","tez", "hive", "sqoop", "slider", "falcon", "oozie", "storm", "knox", "ambari_infra"]
  },
  "XaAgents-HA": {
    "install_dependencies": ["hdfs", "yarn", "mapreduce2", "zookeeper", "hbase", "storm", "pig","tez", "hive", "knox", "slider", "atlas", "kafka", "ambari_infra"]
  },
  "hue": {
    "install_dependencies": ["hdfs", "yarn", "mapreduce2", "zookeeper", "hive", "pig","tez", "hbase", "oozie", "slider", "atlas", "kafka", "ambari_infra"]
  },
  "HBaseMultiCluster": {
    "install_dependencies": ["hdfs", "yarn", "mapreduce2", "zookeeper", "hbase"]
  },
  "Livy2": {
    "install_dependencies": ["hdfs", "yarn", "mapreduce2", "zookeeper", "spark", "spark2", "slider", "pig", "hive", "tez", "zeppelin", "ambari_infra"]
  },
  "Livy": {
    "install_dependencies": ["hdfs", "yarn", "mapreduce2", "zookeeper", "spark", "spark2", "slider", "pig", "hive", "tez", "zeppelin", "ambari_infra"]
  },
  "ZookeeperACL": {
    "install_dependencies": ["hdfs", "yarn", "mapreduce2", "zookeeper", "accumulo", "atlas", "hbase", "hive", "kafka", "tez", "oozie", "slider", "storm", "ambari_infra"]
  },
  "XaAgents-Hive2": {
    "install_dependencies": ["hdfs", "yarn", "mapreduce2", "zookeeper", "hbase", "storm", "pig", "tez", "hive", "knox", "slider", "ambari_infra"]
  },
  "Druid": {
    "install_dependencies": ["hdfs", "yarn", "mapreduce2", "zookeeper", "druid", "hive", "pig", "tez", "hbase", "slider", "kafka", "ambari_infra"],
    "overridden_kerberos_type" : null
  }
}
