{
  "configurations": [
    {
      "hive-site": {
        "properties": {
          "hive.security.authorization.enabled": "true",
          "hive.server2.enable.doAs": "false",
          "hive.metastore.transactional.event.listeners": "org.apache.hive.hcatalog.listener.DbNotificationListener"
        }
      }
    }
  ]
}