{
  "configurations": [
    {
      "core-site": {
        "properties": {
          "ha.failover-controller.active-standby-elector.zk.op.retries": "120",
          "ha.zookeeper.quorum": "%HOSTGROUP::host_group_gateway%:2181,%HOSTGROUP::host_group_master%:2181,%HOSTGROUP::host_group_ha_master%:2181"
        }
      }
    }
  ]
}