{
  "configurations": [
    {
      "hdfs-site": {
        "properties": {
          "dfs.namenode.safemode.extension": "5000",
          "dfs.namenode.checkpoint.period": "21600",
          "dfs.namenode.handler.count": "40",
          "dfs.namenode.name.dir.restore": "true",
          "dfs.https.port": "20470",
          "dfs.ha.fencing.methods": "shell(/bin/true)",
          "dfs.namenode.checkpoint.txns": "1000000",
          "dfs.namenode.accesstime.precision": "0",
          "dfs.http.policy": "HTTP_ONLY",
          "dfs.nameservices": "mycluster",
          "dfs.namenode.rpc-address.mycluster.nn1": "%HOSTGROUP::host_group_1%:8020",
          "dfs.namenode.safemode.threshold-pct": "1",
          "dfs.journalnode.http-address": "0.0.0.0:8480",
          "dfs.namenode.https-address.mycluster.nn2": "%HOSTGROUP::host_group_2%:20470",
          "dfs.ha.namenodes.mycluster": "nn1,nn2",
          "dfs.replication.max": "50",
          "dfs.namenode.https-address": "%HOSTGROUP::host_group_1%:20470",
          "dfs.client.failover.proxy.provider.mycluster": "org.apache.hadoop.hdfs.server.namenode.ha.ConfiguredFailoverProxyProvider",
          "dfs.ha.automatic-failover.enabled": "true",
          "dfs.namenode.rpc-address.mycluster.nn2": "%HOSTGROUP::host_group_2%:8020",
          "dfs.namenode.avoid.read.stale.datanode": "true",
          "dfs.namenode.http-address.mycluster.nn2": "%HOSTGROUP::host_group_2%:20070",
          "dfs.namenode.shared.edits.dir": "qjournal://%HOSTGROUP::host_group_1%:8485;%HOSTGROUP::host_group_6%:8485;%HOSTGROUP::host_group_2%:8485/mycluster",
          "dfs.namenode.rpc-address": "%HOSTGROUP::host_group_1%:8020",
          "dfs.replication": "3",
          "dfs.namenode.http-address.mycluster.nn1": "%HOSTGROUP::host_group_1%:20070",
          "dfs.namenode.avoid.write.stale.datanode": "true",
          "dfs.hosts.exclude": "/etc/hadoop/conf/dfs.exclude",
          "dfs.namenode.https-address.mycluster.nn1": "%HOSTGROUP::host_group_1%:20470",
          "dfs.namenode.checkpoint.edits.dir": "${dfs.namenode.checkpoint.dir}"
        }
      }
    }
  ]
}