{
  "configurations": [
    {
      "hive-site": {
        "properties": {
          "javax.jdo.option.ConnectionURL": "jdbc:oracle:thin:@//DB_HOST_PLACEHOLDER/hivedb?createDatabaseIfNotExist=true",
          "ambari.hive.db.schema.name": "XE",
          "javax.jdo.option.ConnectionUserName": "hiveuser",
          "javax.jdo.option.ConnectionDriverName": "oracle.jdbc.driver.OracleDriver",
          "javax.jdo.option.ConnectionPassword": "password"
        }
      }
    }
  ]
}