{
  "configurations": [
    {
      "admin-properties": {
        "properties": {
          "db_root_password": "mysql",
          "audit_db_password": "rangerlogger",
          "db_password": "rangeradmin",
          "audit_db_user": "rangerlogger",
          "policymgr_external_url": "http://POLICY_URL_PLACEHOLDER:6080",
          "db_root_user": "root",
          "audit_db_name": "ranger_audit",
          "DB_FLAVOR": "MYSQL",
          "db_user": "rangeradmin",
          "db_name": "ranger",
          "db_host": "DB_HOST_PLACEHOLDER",
          "SQL_CONNECTOR_JAR": "/usr/share/java/mysql-connector-java.jar"
        }
      }
    }
  ]
}