{
  "components": {
    "LOGSEARCH_SERVER": {
      "is_ha_only": "both",
      "kerberos": "both",
      "type": "master",
      "provision_action" : "INSTALL_AND_START"
    },
    "LOGSEARCH_LOGFEEDER": {
      "is_ha_only": "both",
      "kerberos": "both",
      "type": "gateway",
      "provision_action" : "INSTALL_AND_START"
    }
  }
}