{
  "configurations": [
    {
      "core-site": {
        "properties": {
          "io.compression.codec.lzo.class": "com.hadoop.compression.lzo.LzoCodec",
          "io.compression.codecs": "org.apache.hadoop.io.compress.GzipCodec,org.apache.hadoop.io.compress.DefaultCodec,org.apache.hadoop.io.compress.SnappyCodec,com.hadoop.compression.lzo.LzoCodec,com.hadoop.compression.lzo.LzopCodec",
          "hadoop.proxyuser.hcat.groups": "*",
          "hadoop.proxyuser.oozie.hosts": "*",
          "hadoop.proxyuser.oozie.groups": "*",
          "hadoop.proxyuser.hive.hosts": "*",
          "hadoop.proxyuser.falcon.hosts": "*",
          "hadoop.proxyuser.hive.groups": "*",
          "hadoop.proxyuser.falcon.groups": "*",
          "fs.azure.account.key.hwxasvtesting.blob.core.windows.net": "R/1hsiE/qdHPZU9yfrSPlOcJ7AvPAtdsaNyRxaWC++NkU8jxHNC1m6ZsuOpRqyodiP/Fnn29NrI+/zZ4nEJN6A==",
          "hadoop.proxyuser.hdfs.hosts": "*",
          "hadoop.proxyuser.hdfs.groups": "*",
          "fs.defaultFS": "hdfs://mycluster",
          "proxyuser_group": "users"
        }
      }
    }
  ]
}