{
  "configurations": [
    {
      "logsearch-properties": {
        "properties": {
          "logsearch.logfeeder.include.default.level": "FATAL,ERROR,WARN,INFO,DEBUG,TRACE,UNKNOWN"
        }
      }
    }
  ]
}